{
    "[javascript]": {
        "editor.tabSize": 2,
    },
    "[html]": {
        "editor.tabSize": 2,
    },
    "git.ignoreMissingGitWarning": true,
    "workbench.startupEditor": "newUntitledFile",
    "workbench.iconTheme": "material-icon-theme",
    "javascript.validate.enable" : false,
    "window.zoomLevel": 1,
    "workbench.colorTheme": "One Dark Pro Vivid",
    "explorer.confirmDelete": false,
    "git.ignoreLimitWarning": true,
    "editor.minimap.enabled": false,
    "editor.acceptSuggestionOnCommitCharacter": false,
}
